<?xml version="1.0" encoding="UTF-8" standalone="no"?>
<!-- Created with Inkscape (http://www.inkscape.org/) -->

<svg
   xmlns:dc="http://purl.org/dc/elements/1.1/"
   xmlns:cc="http://creativecommons.org/ns#"
   xmlns:rdf="http://www.w3.org/1999/02/22-rdf-syntax-ns#"
   xmlns:svg="http://www.w3.org/2000/svg"
   xmlns="http://www.w3.org/2000/svg"
   xmlns:xlink="http://www.w3.org/1999/xlink"
   xmlns:sodipodi="http://sodipodi.sourceforge.net/DTD/sodipodi-0.dtd"
   xmlns:inkscape="http://www.inkscape.org/namespaces/inkscape"
   width="32px"
   height="32px"
   id="svg3014"
   version="1.1"
   inkscape:version="0.48.3.1 r9886"
   sodipodi:docname="Nuevo documento 4">
  <defs
     id="defs3016" />
  <sodipodi:namedview
     id="base"
     pagecolor="#ffffff"
     bordercolor="#666666"
     borderopacity="1.0"
     inkscape:pageopacity="0.0"
     inkscape:pageshadow="2"
     inkscape:zoom="11.197802"
     inkscape:cx="16"
     inkscape:cy="16"
     inkscape:current-layer="layer1"
     showgrid="true"
     inkscape:grid-bbox="true"
     inkscape:document-units="px"
     inkscape:window-width="1295"
     inkscape:window-height="744"
     inkscape:window-x="65"
     inkscape:window-y="24"
     inkscape:window-maximized="1" />
  <metadata
     id="metadata3019">
    <rdf:RDF>
      <cc:Work
         rdf:about="">
        <dc:format>image/svg+xml</dc:format>
        <dc:type
           rdf:resource="http://purl.org/dc/dcmitype/StillImage" />
        <dc:title></dc:title>
      </cc:Work>
    </rdf:RDF>
  </metadata>
  <g
     id="layer1"
     inkscape:label="Layer 1"
     inkscape:groupmode="layer">
    <image
       width="25.88983"
       height="24.946856"
       xlink:href="data:image/png;base64,iVBORw0KGgoAAAANSUhEUgAAAPoAAAECCAYAAADXWsr9AAAABHNCSVQICAgIfAhkiAAAIABJREFU eJztnXm8ZFV177/r3prvPPXtbgWCioD4ghIgDuBTcYKIkDg/pwAOL8+ncUjUaF4iiS+axCExDiSK BiO8EMDYgggqooQZGURAZuimoWl6vkPNVfv9sWv3Pqe66t6qe+vWqTpnfz+f86nq27eqVt1zfmet vfbaa4tSCofDEW4GgjbA4XCsPU7oDkcEcEJ3OCKAE7rDEQGc0B2OCOCE7nBEACd0hyMCOKE7HBHA Cd3hiACxoD5YRASYAmYhNgsD60GlQT0O5ceAx5RSc0HZ53CECelmCayIHAzJ0yB2OiROhIG4Diqk dnhRQGUPFK+G/KVQ+qFSakfXjHU4QsSaC11E1kPifZA4DRLPh0HsMYAVOp5HY1O19rwCVKuQuwkK 50D+fKVUZU0NdzhCxJoJXUTSkPgoZD4OsWE9SojRWOTNPLo5qmixm6NwH8x9GooXKrcqx+FYlo4L XY+9B98GQ38DiYMgjhV5DC3uOJACEljRD6LFXsEKuwgUPD8zPy/XjtxdMHemUsVbOvolHI6Q0VGh i8g4pC+G9ElazAms0BNABkgDSQ705I08unksADkgi9+zl4BSEXZ/TKnsP3bsizgcIaNjQteJtuHL IXWUFrUReRwYA4axobqZ1asXdzNMCF8BFmqHEXsZ7fkXvge7z1RK7evIF3I4QkRHhC4iz4PRH0Jy o/bWRugjwCg2ZK8fi7cjdO/zCrAX6+GN2Bd/CTteppRaWM33cTjCxqqFLiInwOjlkBqxIk8B0+h/ N8usrxRvSL+IFrwZs5eAuatg5ylKqeIqP8jhCA2rErqIzMDIryC9QYs6iR6Dz6BDdiNyWL3A6zF2 F4BdaJEbz773Ytj9ZqVUtcMf6nD0JSsugdXZ9cx3ILVBe/EkMASsw59NbzR11gnMeybRBXYmq58A xt8Ao2evwYc6HH3JKmrdYx+F9GusyNPocN148rUSuBfzGcnaZxuxx4HJj4skj1pjAxyOvmBFobuI HAvj10MqbqfLZtHPuyXyehQ6Obcbz3j9WnjyJa6oxhF1VujR05+GeNxOoY2jE3BBiZzaZ5p5+kG0 Zx86ATJnBWCMw9FTtO3RReQImLwHUqJFNYJOvnmn0ILCTL1tx3r1xW3w2MFKqXKAhjkcgbICj576 MMTEVryNYhNvQSNoW0awZbWpDZB+XaBmORwB05Y6RWQaku+0Sa9U7ejUHHknEHQVnneV3Nh7AzXJ 4QiYNt1w4t2QSNlVaKasNeiQvR5BDyuMhx9+lUj60GBtcjiCo02hx19uvWQcnfzqJYEbBD2nb+rq BwXifxCsTQ5HcLQsdF0gEz/OCt07ldaLmByCEXvq2GDtcTiCox2PfhjExm2onqB504heIYG1N+OE 7ogsbQg9/rtWNF6h9yqC9urmefKZer28wxE92hD6wPNtGGy6xPSy0MHaKIAIpJ8TsEEORyC0IXTJ 2DG5afvU63in/QT8C9sdjsiwgiqX+jnzXhZ8va7LhUDMcDgCpp3QneX7vPUaXqELIPmgLHE4gqQX 6la7hAIGnNAdkaQdoSv7UPX/qGepty/vQndHJGlD6JUH/DuomI1SelnsB9jmPLojkrQh9Or1tu0y 6F5tvY6xUQGVOcC1gnZEkjaEXroNKnm7Y0qJ3vfmBezNaf5Hbk26I6q0LHTdPrl0q9340IioV/GK XAEL/xmsPQ5HcLSZdS9cZ/dBK2G9ei8KPo9nh5ciLFwesEEOR2C0KfTyhTYRV0VvjdSrmLybAuav UkrNB2mNwxEkbQldqeJtkPuJ3fcsi/bqvcYiNpdQBRa+H6w9DkewrKBgZuFzuvGi8erz9Fb4XsFv UzkP+34QrE0OR7C0LXSlSj+D3C1W7Iv01vT0HP691Hf8H6XUk8Ha5HAEywpLYBf+r93rzOxsWiZ4 r55F76NuhD5/M+z+UrA2ORzBsyKhK1XYBPPf0WKvoDc23EOwIXwV7c33h+xFePJMpVRl6dc5HOFn FYta5v4IcvdYsefwC62bVICd2LxBBdj+GaUKd3fZEEeHkSUI2rZ+YrXbJj8HnnYLpDO6tVQM3QJ6 wvxGB0xcjhJ622TvuHzhTnjkWKVUL04JOJbAI2Ch+bpo5Xn0Hrh99hqzKqEDiKTfCevO0xstms6r KWCSte9EU0BvqmhW1FWA3BbY8mqlCveu4Qc7OkhN3ALIqZA8A16s4IgqbADWK32sK0KpANtL8FQO thfhiSfhjn+Au7ChpbnjO9F7WLXQAUSG3gvTX4VkzIo9gfbsCfNbq/4cP1n0GhWvyBduh0d+Tym1 rcMf5lgDagIf+CyMHg+vicHpMXhVFcYr2FRveZkjD4/PwVU74cqfws/u1mNII3zlBN8hoQOIpF4F 6y6C1KgWu7f/+yi2x3onWMA/V14B9l0Bm9+olOrlcj0HVuBXwmGzcPYAnFaFpCnD8oq7FaGX/M9z u+Gi6+Hz18Cj6LCvTMQF3zGhA4gknwvTl0HmEL/Yzc4pQ/hbMK8Ur9CrwM6LYetb3eq03saE6JfD xoPhL5JwRhViJh5r5sXr/11iecEXIb8DvnMdfOlWeBxd7BFZD9/RVlJKFe6CJ14Aey/TN1Kz8KWC FudTwDb0VNwCelqujF0RZ44SOos/j56j34m/KCdjPrF2SNyJvLcREfkwpB6AzzwX7huB98QgZnbx W+oYqDua/dx7xCA1De89BW5+P3wKnTRKAQNRzNh31KP73lgSvwsTfw2jr/SfNtMbHg5Mpg7QfHrO JPgMe9Dj9ApQrMC9hyilHu/w13B0ABGRK2D9c+CiOLwY/CsRlvLmS3nt5f5tngPMwdUXw//eAlup XThR8uxr1hxSqeJNSm1/FTx6Iuz7ufbwRfxevv7wVtt5E6gK7dG9Ttt4dQEGBmH8zLX6Lo6VIyID t8DzfhtuTMGLzYbb5liJN2/mxaXJc4BReNn/gE0nwDHACBCPkmdfM49+wAeJ/BaMvAIyr4TMSRCf 8reQhsbjdu8pG0WfI8NT2PB/YQtsPlQpVT3wPRxBICIDv4HTJ+C8GAybs21itnpv3kbCreXnxqUY yrDv1/DBTfAjatn5KFwzXRO670P1zqzPh8SRIKMwOKIPGQGpQOleKN4DuXvh0Jsh/Qx9L08As9gb wiK2zr4IbH2tUos/7PoXchyAiAzcCa+ZgU0xiHkHbmDnSpoJvZWQvF7QS/3Me5VXIPcLePs1cC36 AiqFPYwPROjtIDL+KZj5jM7Wx4Fp9JQdaJ+wHXtad1+q1JOvC8ZSh0FE5Bo48lC4Lg7j3jDd69Xr x+WtiHulP6t32QXYdjG85QG4G+3Zy2EWex9s4LDvX6FQsZfEAvb+PEAtkVo7hk8RkacHYqYD0CK/ AKY2wibAt3ut2bWvfnze6ni73Z+J53k9SdhwKnx5CDaiEz6DYR6z97zQdSZ94Qo72jLToYYh7OmM DcL4uwMw04EW+achfjT8+wA8Cw6cPzFib0XkwtLirf/ZUv/XiFE4+h1wNjCD9hhO6MGyeK4/G5/F XkJmMY3JyY6dJSKDgZjpkNfAu2Nwkkm2eR/NcxNG1wu0mWCX+1mr/9eI9XD6S+EkdPQR2kx8nwi9 eBkUt9vimkX8vsLr1ZNPh8wpARgZaUREPgZDafiUd1K02uDwTp763qPuaPVnrd4smpl+DHwAWIcO 4UNZUNMXQtfLTRe/Yy+RYu0wpPHPtI68r/tWRh75PfggsLGRyBtl1703hIZvyOoFX/8+jRiFo06B U9BePbHEr/YtfSF0jTd8r/fq9Um5kZNF5OBAzIwgIiJfgYkUfLRe2I2OerEfsKi8/v0bPG8m5KVu DEtxFLw3ruduQ5mY6xuhK6Xug5xnA4ks/uDPG74PDrikXFeRw+FDCiaWCtXrF6p4j3rBL/lhyzxf LhJoxBAcdDK8jtpYfRkT+o6+Ebom902/V8/hknLBYpacDsIfLOfJGxXGeJt/NfLuKxH+Up5+KZ4O L0cvqDBjwdDQZ18mfxGU5u1ls2RSbiNkXhuAkZHjHDhU4Dle0TYTeLMFLN4IoB2RG+qF3MzTL8Uk /HbGJuVCFb73ldCVUouQ/Xd7aZilsIb6pNywS8qtPTINp3rD9EYr0prVszcK4ZsJvl3x+4xs4Xdi kH4RvADtMWIr+Jiepa+Ersmf6/cDSyXlRl8tIocEYmZ0GIjBKa2E6ysVeyvj9+WSeI3+3YhD4UXo 1VNJ+lIfjem7L6JU8SYo3GUvC+84HQ5Myo29JwAzI4GIyAshPgAn1Au7FW++lOBb9eydbi4+Cc9F Cz1UTSr6Tuia7Ln+S2ippNz4mSISqjCsl3gdzKq6fm+d8Ob1Ym83UbfSG0BCdzQdRnv0UIgc+lbo uX+DcrHxnDrUJeU2QPrUAIyMBCl4Wie9uTcT3+ioD+Whsx5+EOKzMIWeYutTfRxIX34RpdQuWNxk L4/6hS4Z/Em5MZeUWxskBhtX4s2Xmm5rFsI38uztZOlbvQGs14tcnNB7g2zdnLrXqwt+sQ+/SiR9 aCBmhhsR2FAv0Fa8dv3PG4l8KbE3C+Vp8vN2vPyEbnpg2hiHInzvY6GXfwqlLf5KOe/pzGDD95hA 2iXl1oaZRlNpzcL5dkTebLyuGjzvZKJuSPcrM4keJ/Qg0X2+Fr5tL5MSel7dYDrSGK8+9j4RyRz4 To5VICWYb8WbNxJ3Oxn4Zpn4VpJ07Yp+ToeH3t6SfU+ff5Hst6FSXT4pNwgkJmHUdYrtMIuwfaXe vJUsfCvhe6e9+x69oZ936Xzf09dCV0pthtxP7SWSw5+US2OHWYPA2Edc/XtHUVl4YrnKt3bE3SgD 3653b6fQphHbtNBNRVYnp+kDo6+Frlk8138JeOfUBe3VTfY9fSikXx+ImeFE7YMnlvLmKxH9UgU0 zcTeikdvhQqUdtVt0tj2X6UHCYHQi9+H4g57A65PyhmhG7FP/kn3bQwvt8G2CqhWRNuq8JuF7/Ui X0rszebcl6NQa/9M4+axfUvfC10pVYTshfZSMJtnGgbwiz1znEj6v3ff0lCiboBcDn61lDdfTvBL he/tjNeXC+VbYSfcj10t5YTeWxTO98+pN/LqZpw+CIz9addNDC+VfXDlUtNmy02rLefpW/Huy1XR tcpDcCe6p3ihzZf2NKEQulLFG6H4sL0E8vjPkdmn3Yh95BSR5JHdtzSUVB+DS9uZXltN9t0r8FbF 3s74/Bb4FXob3zxQDcumDqEQuiZ7gT3l9evUBb1OYf9YXWDEjdVXSU0E1fPg13l4tFHGvFVRLyf4 lSTnvGJvhd3wQFaP0efRF5EL3XuP7Pn+y6A+fI+jV7btX9X2NhFZ33Uzw4cCivvginbE2+o4fbXh eztKfVR78zl06F5e+rf7i9AIXSl1LxRuby50QVc2mvA9loSxD3bf0lBSvgO+WobcSufTmyXwlgrh m3n3lYg8D3uugp8Dewjh/umhEbome77/MjElseZ8JbFlsYPA5P8UkeGumxkiTPj+Y9j8FHx7qdB7 JeP0pcL35bx7Oyr9Ffwor/fh3s2B3Uz6npAJPffv+Epi67066LG6WewSn4DRs7psZBhRQOFn8MU8 7Gk2Rm9F8O2G717vXS/2VlmE7T+Gn6GFvge9O4gTeq+iN2TM/cJeBjn8p1ywZbH7x+ofFpFQ7s7R LWpevXwXbN8JX+5EEq6V8L3a5N/tZtB+CZdVYAf6WCRE2XZDqISuyZ/vP+1mqq1ZWWzqEBh2S1hX jwIKF8E3cvBrRetj8Vbm1Jt5+kbib4ftcNfVcI1+Gk5vDuEU+iVQLthT3ygpN4zfq0/+uVvCujpq HrCyC/b8At5T0t6RKqubUlvq5rBakc/DtvPhG8A24Em0Nw9VEs4QOqErpfZC7nJ76vMceAl459UH gdR6l4HvCAoo3Aj33QHvr3oaBDQTfCPP3czbL3W0q8wiLFwMX5+DR4DHsN48lIRO6JrcBf7Lo1n4 7u0WO/ExERkPwNjQYDLwwOIP4eqH4NP1v2MGVCvJvjcS/0oqWqpQvhLO3Qz3AJvRSbgsIRybG0Iq 9OJlUJ6zl0Kj2ZJ6r56YcDXwq8ck5oD58+G8zfB59Inw/x7ti94r8JWqsQyFn8O3boUb0CLfhi6Q CWXIbgil0JVSee1Ulgvf67365B+LyGxXjQ0hNcGUgL3fhn+8HT5S0WJq/hr8S0xXU7PejBzsuhi+ cA1chQ7Zt1Jbex5mkUNIha4pbvKP4urDd8MIVujxIZj4VFfNDCm6px8FYNcmuOQn8K68FlYg7IIH z4XP3gu3AA+gvfleIiByAAnrdxSRUVi/E9JxvbvOGHpH3PqdshU6QWwWwuSL8PCzdZsqx2qobWck 6EUGowfDYafBX0/BS+lSd9UKlB6En18MF5X0jWYLOsO+gBZ5aBauLEVohQ4gMv5jGH+lFnoK2MCB rboVWuQ70Z6/COz8V6V2ntFte8OKiAygx0jDwLoT4CXHwh+Nw/PW6jOVXj57y5Ww6XF4GD0Wfxx9 orNAOQqe3BByoafeDzNf0dVwSfTW12a3VS8Kff7z1NpGV+Cx/6ZU4TddNTjE1Ly7aQwwDsy8Ak46 Gt4zAod18KPUU3DPVfC9++A+dEb9SfQJniNk68xbJeRCl4NgwxZ9baXQ19c4B4bvoL36DqxX332J Uk+9oZv2hp2a2I13z6DHUzPHwPMPh5fMwrGj8KwBfUNomSqUd8ODm+HO2+Dmx+EJYBf6hO4E9qEF XkbnCsN70Tch1EIHEJm8FUaP0WJPA+tpvAGHQl8bObRXLyrYfJxSxVu7anAE8Ag+jhb8CFr0Y7Ow 8Th44TgcmobJJIwlYCyp/58CzNWOfVnYtxO23gS379MFL3NoUZtjHn1Cy0TQi3uJgNDTfwHTZ9vw fT3Nd8QtoiO9CrXZoauU2vaKrhkbITz7jhsPn8DejYdqhzlpZtsd4+nNCTLb8+TQybVF9Pg7jz6Z FSIucEMEhJ44Gqbv0I4jic68j9I4fFfo5chZ2L+efds7lFr4bhdNjhQewRsvP4gVfrz23HT1NMkV 78K1MrUQDNu5tUpEQ/RmhF7oACIzj8LwIXqcPoROyjXbP6+EHtqV0ddOdidsOUJv1exYS+pE7z2g 8V3ZPO4/nLgbE+KCGS/ZH9gquQINKjI9mFkgE1GmpmHqi2tvo0NZqkqp+kVspbpjf2WsUqpSe40T eRMiInRvlZyieZUc2N5ypuVUDBh/p0jajdW7jGqRoO3sByIi9PIvoLzXDt9aaQk2gX/IOH2OiKTX 1k6HY22IhNCVUmXIXu4P35cSuqA9uulEEwPSz4Sxv1xzYx2ONSASQtcUL/MvcimxvNjHsLM6MWDy ozqL73D0F1ES+n/5Fz3Wt4JuhKCn4vavWY/B1DdqtdsOR98QmQtWKbUVio9asbeyh57pGms6x8aA 4eNg6ANraavD0WkiI3RN8drWx+kGE8Kbeo0YMP0ZETl4zcx0ODpMxIRe8oTvrYzTDYPoEN549eQw zHx1zcx0ODpMxISev9Y/TjdNP1sJ4YfQJbRG7GOvFRl+51pZ6nB0kogJnd9AeVd743Qv4/jn1me+ LpI8qvNmOhydJVJC11VUheusR281dAft1WPoqrn96y4yMH2J26jR0etESuiakichZxY7tYopj01h xZ45HKa/2XEzHY4OElGhexsJm/C9nRB+Ai3yGLqgZuzNIiNuys3Rs0RQ6OVboZKzC1zaHaebZdOT WK8eB6a/IBJ/YaetdTg6QeSErpQqQuFm69FXsnmm6WA8hqdBShw2XCqSPKKjBjscHSByQtd459NX ukuumXIborb5A5CagpkrReRpHTPV4egAERV6scF8+ko3/RnHJufiQPpgWH+liEx0ylqHY7VEVOjl W/07epVX+D6m09EUupjGtDobPgrWXerWrzt6hUgKXSm1EyqL1quXWfkWfkbsk9glrXFg5MUw/QM3 x+7oBSIpdE15i/XqK/XoBlNMM4VtXJoAxl4Bsz8XkXWr/ACHY1VEWOiVzTZ0X82O2wbTlWYKO8ee AIZ/B9ZfJyLPWOUHOBwrJsJCr27xC70TmGm3afyefehZsPF6kcQxHfogh6MtIiz08mZ/Mq5TzUSN 2GfwJ+gys9qzZz7k6V/ucHSFCAu96hmjgw3fOyF4M2afRk+9xdFiT6Vg9kswdZVrXOHoJlEWusej dzJ8N5hdgqfR20EZz54ERl8GG+8USbv17I6uEGGhl7f4hV5ag8/w1sVPYPcKTAKZMZg9T2TmWpHk aa7hpGMticTea40QkRjM5GFoUIfXE9jGEp0eQpu/cRHYi94ppn63ofz9MPclKJynlMp12ABHxIms 0AFEprbAyEFa6GPoqbG1ELrBRA8L6K28y/gFXwZKC5C/CYo3QOEGqNyolNq9RgY5IkLEhT72XzB+ gt2Sex16XL2WSXHz9y4B8+gtmit1RxnbwLKqoPQglB6AyoNQfgjKD+rnPKKUWosxhyNkxII2IFi8 c+ntdJpZDVL7vDh6uDAKLKK9vBF4HI/QBZKHgTrMvxCnClQrOiopPwjF66CySaniHV36Io4+IuIe feRfYPw92qNngA2svUf34t3i22z+WKgdJc/P1RLPfcIHipshvwkKm6B8jd53zhF1Ii704W/B+Bla 5EEI3aDqnpvpvmLtMAk779bP9Ye3Pdb+YcAeWLwcit+H4hVKqYXufB9HrxHx0J140AZo6m8sZlou hr4BeQt5vJtEmscydk29V+zVCUi+DSpvg9K8yNA/QfaLSqlda/2NHL1F1Odue/BGJw0O00t+fycb dDfaMXRBziw6GplEJxUTtd8xRxoYGoGpT8L6R0WG/9atqIsWERe69KDQvTQTvff5/p1e0Ym9dcBG tOiH0UJPYgWfGYapj8GGR0RGvyAi67v6lRyBEHWhZ2zY3E/rTBrdALzij6M9/jTa00+hRe719JkM THxEC37kH12fu3ATcaHHnmkFMhi0MaukmehjaM8+ixa+EXyy9jyTgskPwoYHRFLvC8Jyx9oT2ay7 LoGdysJQXF/wpgQ2iKz7WuOdxlPoabx59DSeaaVlMvvzm2DvWS5hFy6i7NEPhYG436OHTeCGei9v qgDrPXwKGD8N1t8pkn5FQMY61oAIC33w2X4B9HheriOY7wp+wU+ixW7G8EMbYebHIqN/LyKJQEx1 dJQoC/1om7U2Qg+rR6+nXvDDaMGn8TTJEJj6E5i5UUTc7jN9ToSFnnq9Fbrp7xY1vBGNaX81ihV7 Ehh5PjztVpHUqYGZ6Vg1kRS6iDwTEsfocfkAOlz1XvRRwzt+N0U4CTzePQPrLhZJvTY4Gx2rIZJC h8QbbaXZALrMNIoCr8cIPo0O5TPYjjipBMxeIpL6vQANdKyQyAldRJKQPssK3XguJ3SNNzk5jS68 MVtDJxMw+z2R1CkBGuhYAZETOqT+HJLPsuPyDP6yUofG/D3G0cm6/c0tjdhPDtI6R3tEqmBGRI6C idshXSuSSaNLRGOsbQupfsZcH3vQzTHM8tlCAbafrlT+isBMc7RMZDy6iMRh6FuQiGvPFEMnnsw4 3dEYc/ObQHt2M9xJJmH2+yKpVwVmmqNlInSFp78A6ePtmHyodpg/gfPmzWkk9jha7DP/T0SeHphp jpaIhNBFYm+F9AesyONob+7G5q1TL3aToEtNwsy/ub70vU3oT46IPAdGvmFLPE1TxgQR+Podxit2 s69cHBh9KQz/WVBWOZYn1Mk4ERmG4V9C5nC7Dnu8dpiSV+fN28dsTPkUdtVboQxbT1SqeGOgpjka EnKXlvwspA633jyDTcA5ka8cM89ulvXGgHgMZi8QkdFATXM0JLRCF5HjIPO/rMiT6FVaLsveGQTb Pdck59KHwuQ5gZrlaEgor3gRGYThf4HEgE2+TdYeXZa9c5iCmjjWs4+/VWT4XYGa5TiAUAodYh+C 1POsyIfQxTEuy955BJ2cM22r4sDUP4jIWKBmOXyETugicjAMn21FnsDukuqq3zqPWeI6ihV7chxG PxSoWQ4foRM6pP4PxIf88+XekN3ReQQ9t+4N4Sc/5Lx67xCqq19EDoH0u6zIU+gL0IXsa48R+/4+ 8+Mw+sfB2uQwhErokPokxON2Zdoo4W762EsIOhdiFggNUvPqbrqtBwiN0PXYPH2GvtBi2J1Jotw5 Jgh8Xn3CefXeIDRCh/Qn/N58BDdn3m0aevUPO68ePKFQgYhkIPl2683NLiT9uN1SGDjAq38wYIMi TyiEDoOvh9iIFvkgdimlm07rPo28+vj7RcSdiAAJidBTZ1iRx3HNHnsBr1dProfYCwI2KNL0vdBF 5Lcg+VIbtqdxmfagMZ1kvXu7j5weqEkRp++FDol3QkxsqD6Ey7T3AmZjDCP2YSf0AAmB0FO/72/d nCQUX6vvqffq6WeLJI8M1qbo0teKEJFpiB1the7NtDuCx+yAY9YZpJ1XD4i+FjoMvhwGPWF7Clfu 2kuYvIkL34Omz4UeP8mKfBAdtjuB9w714XvmOBF5WrA2RZM+F3riFX6R9/nXCSXe8H1QYOztARsU SfpWGSKyAeLPsB7deHMXtvcWZunq/t1azwrWnmjSt0KH2JH+ZhIJnMB7EcHv1VOHiaRPDNam6NHH Qh/0CN10NnH0JvXZ9xHn1btMHwt94AjrzY3QnUfvTRLY8H0QGHmjiIwEa1O06GOhDx7pRN4vDKCb gJjzFc/AyFuCtSla9LHQzRhdsKWWLhHXu6TwT4WOvS+sK9pEJCUiB4nIpIj0xJiyL7dk0hfIVAUy oudpJ7G7hoTy2gkBCpgD5tHbOBWB7Z9Uau9nAzVrlYjIsyF+MsRfAoOHQPwgkHX+61AtQnU3lG6D yo1QugHKtyilsl2zs0+FPgrT+/Ry1DQwhX93VEdv4t2vrQzky7DlZUqVrg3WrvbQTUiTfwzJ0/xT vN5ZIG90qeqOKlBegNz5UPi6UsVfrbnNfSr0g2BmixX6NLp1lBN6b6OvFdt4AAAPDUlEQVSALLAH qKC9+uJW2Po8pdSuQE1rARF5LqQ/Dqm3QCxmeyCYo17kXqGbx6rnqNSO3A2Q/ZxS+R+sme19KvTn wsyv9ZLUFDCDv62zo3dRwF5gARvC770cdrxW9ejFqGcIUv+gm4/Gxdbw1wvdbCVtEsReD25ubGX8 gq9gI5zFS2HvB5VSj3b8O/To33ZJROIvhslrrUdfh37uhN4fVIEdQAGP2DfBzncppfYFalodIvGX QfrbkDxETxOabadMb8JM7dFbmQmNr0OFFnYBHdnk8Xv2MlDMwb6zYfHvOnnj69ese8b/Tyfw/sLs 12Y8YRwYOw023iqSODpQ0zyIJP8GRq6CzCHaoaSwm4LMALPo3FCGxmF8/WG+q3n9+trrTR+FJJBO w9TnYOwCEUl26rv0q9DzdVnNwAxxrAQzJTqBDYETQOaZMHuDSPqMQK0TEZHUV2D4zyAlWtzGe8+i I8hhrLgbjc2bHd4iryT6bzBbe2+v4CfeAtM/EZHJTnynPhW6ZP3idkLvP8wS1mlsSJxAe7TZb4lM XyESf2nXrRIRSP4zDL/fii6J9rxGkEsJvKVPqTuSaA8/gd0YNAmMngiz14rI+Gq/V58KvVQ3/+iE 3p+YxUgz2BbRCbQHHXs1bLhaZPomkeTrRaRL12r88zD0Hi0048mn0LUaZiWeMaUTBVpewQ9jb3xG 8ENHwsyFIjK4qk/pz2ScHAzrNuu7q8u69z8mOz2PLqrxJqf2z7k/ALkLIX85lG9WSlU6bYVI7HUw uskKPIkWeP2uP2t1jRktFoFdQKl2FIGdX1Jq30dW+s79KvRpmNnh5tHDhLkOC+iptyxW8Eb0+8W/ G/I/huLlkP+JUurJ1X66dh5jt0Nq0gp9Gv9mINCd60uhBb6j9lhG/12efJNS2YtW8o79KvRBmJ6H obQ+KRO1wwm9v/EWlpTRgl/EL/hqg3+XnoDiHVC+XR/FO4CH25meEhm+GoZeakU+XjvMvDh099pS 6Om3ndg5+OxW2Hr4Skpn+1LoACITt8DIsdqrm+kKV+seDryCr6DFnkV7t/rKsmqTo7IApXugdBdU 79KP5buVUk/Uf5pI/NUwcYUN14fQiTczVQbBXFdmfcAc1qs/9Wml9p3d7jv1sdCHvwkTZ+nQPQ1s xAk9bHgFb7x8vnYU0EI3VWbearP6UlNfJdoeKN4F5bugcjdU7oLRv4fMcTr5lUDPb/dCR2Hzvbdj x+u5LDx6hFLqsXbeqSeW0K2M8p32D2HCOBe6hwupe26y0cPo815EC77kObxlp/XPq0B1AjIngjpR /8zb0yCOzvWYRqNBL3s2nz0G7Ka2SUkGJj4AfKydd+pjoVfu9N+xS+gTZU6eIzzUn0/zb1Op5l0Z ZurJzWMJ6/kbHWCr1gbxr4LshevI1Bsk0Nf6IDDyDhH5pFKq3Oq79LHQy3f679qlgO1xdIdG4vP+ zIyp68f5xuOX8Xt/83ozjx2nN8tL0uibl9mdNnkycGmrr+5boSuldotMb4Xq063QnTcPF2Y6rVk5 aSMaLSoxNeZw4A3AzNNX0O2ugsiwL4egk85zeDr0vJMoCF1TulMLvYq+2/VnYtGhgBz+UHu5qNQ0 mvQuFzXPG3nkZjeARJPf6zXMlmNZtN2Ztlpm97nQy7dD9ZTaXGrt6MU7sqMxZezUmdfTNnpshJlf rk/aGQHHPcdSy0f7AVMTn6s9T8yKyMZG04WN6HOhl74H1U/ZsXoe/cdw9DZ5tMALtX83S5R5E2b1 eIVb/9yMyb2i9grfLKLpN9F795sXIHMMEH6hK1W8TWTqXkgcocWexbYVdvQeCtiHPk/m396pr/IC 5O+H4kNQegjyD0HpYf2fA8P6kGEYHIbB9ZA4XJ/7xDNhIO4XQf1h5t7NtTGAFb1ZSNPrxD3PB4DE McBlrbyyr4WuyV4Amb+yd/Ei/XHSokYFPRdskqbegpbFG2D312HuP5RShSXepCG6pXLyUBg8AhJH Q+p4SB8Pidnm4jc2FGvvsp7ezLZ7McOSqnk+0+orQyD0/AVQ+St70WSx4bvz7L1BCS1yb8lqOQ+7 /g12f02p4h2reffafPIDtWN/JlovVBk+HhLHQ/I4GDpWRwMmc+3t2lql94UO/mHKYHyp3/TS90JX Sj0kMnkjJF6gQ5scejGCE3lvkEM3g/Q2SSw8AY+8TqnirWv5yUqpLcAW4GIAvaY9cSQkj4fhN8D4 KTZjb/IBvXzd1CcUpX7KoCl9L3RN9gIYeoGdlilgw/dePnFhp4hu7ewtVV74JTxyWqvZ4k6ilKoC dwN3i2TmYegUG8pXu23OCvFdzy179H6IVVqgcCGUKzY09E7XOIKhghY5WJHvvggeeUkQIj+QSsVW ypnhBPTZddNy15lQCF0p9RTkfmoXt2RZvuDCsXZUseuoTbi+85vw+JuVUrlATduP2myLc0wdRq+L 3KzgM5QeavWVoRC6JneOLWWsoNsSLTUP61g79uFfQpp7GLZ9qLc2aCjdBZWStbMfKivNeo79C3h+ 3eorQyN0pQrfh+z1VuyL2KkTR/fI1Y79yTcFW89USi0Ga5cfpVQRivfYsL0fFkWZXV6oPRbvavWV oRG6Zv5P7SKFKnoRgPPq3cP8zcEKfcfXlMr9IjiblqJ8hxV6P3h047gUUC1C8f5WXxkqoStVuh4W /tOK3XgXR3c4IGR/BJ76eLA2LUXxNn/hToHedQymxNvYl72pnfXooRK6Zu+fQbFsx+pz2DJLx9qR p0HIflavhex+CpdApWyFvkDvXic57MxAFdj7r+28OnRCV0rdBwvftBnVIv7aakfnqaK9OdiptJ1f VSp3dXA2LY9S6nHIbrKZ9zy9O1vjvYmWF2D+P9p5deiErpn7NBQXbGJuH/2RbOlXzKYLxjPmHoDt PRyye8l91d86epHeC99L2GFFFdj7H0qphXbeIZRCV0pth/kv2IKIMv4KLUfnMFsA7/c2VXjiD1fS ezwIlCpdDfl7rFNYoPecgikhNn/juXPbfYdQCl2z8LeQ/ZUVex7t2Z3YO4eiro69Atver1T2+mDt apf5v/G3lPIKK2jMjcf8jfddvpK/b2iFriuwdr4eCvvseH0el4XvJCZk3z+V9kWldp8TrE3to1Th fFi4zLPPG71RcOUt/KoCpQV4/I9W8k6hFTrolW2w8w9tmylTf90Pc6a9zjx6PLt/Tfn98NRfBGvT atj7PijstV59Di14COZaqaI3WvTuSvPkp2or8tom1EIHUzG35+8OHK+7KbeVs0idpynDtjOVUvml X9e76IU2ez7ibwu9Gyv2bmJEbirhqsDCTbD3Kyt9x9ALXTP/SZj/hX9nyl4ah/UT3lzH/vnydyuV vS5Yu1aPUrlvw/yFfqewC1uo0hUrsFsmG0+++AhsfkNtme2KiITQ9V7au94C+W32JC6ixQ5O7K1S wM5emIvwiY8rNXdeoGZ1lD1vh70X6+GduVZ2YYtp1vJaKQJP4Rd57jF44uVKqa2reedICB1A76H9 1FugULYncAF9EsGJfTlMOyjfmPHzSu3++0DN6jC6rHTvW2FPndj3Yvcr7/S1otA5gZ3YdRoVIP8E PPZypXKPrvYT+nY31ZUiknkTzHwXknHdoCOG3u5mit7Zb6vXKHPg+vJd34Ftf9hbS087h244OfFd GH+zbQ9t9mcbRm+tvNrdexW6BmEB/+xFBcjeD1tPU6pw7yo+YD+REzqASOpkWHcJpNJW7ClgErf1 cj15/MnLMrD3h7D19HYWVfQrIukzYN0XITmurxVvU0mzl3q7bctKaIGbQiNvMUwF2PV1ePJPOll0 FEmhA4jET4ANl0FqzIo9ifbsTuyaefzZ9Qowfz1sfmW/VL51AhHZCDP/DKOv9W/7ZDrImm2XzSYR phWjd+242eHVjL+9/7d/qeyTeu3+4o86/h2iKnQAkcTzYfZKSM/YE5QAJmqPURW7qXjzrUYD5q6C LW9USu1Z6tVhRST9Npj6BKSfa8VunMJymz8aGgp8O+w5B3b+k1JqV/PXrsL2KAsdQCR1OEz9BDIH WbEPond8GTG/FZh93cfMH3ubJlaA7Z+HnZ/QMxjRRiT+Qhh7L4y9GWJpK/bl9lWvD9Ozv4Q9X4a5 C3XHmzW0OepCB9Pof/1PYOjZfrEngTGi491ND3bvNkmlLDx2plLzFwZqWg8iIuMwdCqkfkcf6efV to4yv+H5baWgcD/kbobszZC7Tqni7V2z1QldIyJTMP01GH2TX+yDaM8eZu9expZ8ekPK3MOw5feV KtwZpHX9Qm2DiGfDwCxQBandMctlKN2vlNq73HusmW1O6H709Nv01yA15c+yJtE7wHi34O13TFeV Bc+/TeOIfVfCY2+N6ng8bDihN0BEZmH6n2HsNOvdTeIlg55H7cdtd72YenVvmG5KWnd8Dnb8+WpK Lh29hRP6EogMvwOmv6znUE0ob6ZVUuhwvt88fB4dppsFE76ps2tg24eVKt4WoIGONcAJfRlE5Gkw 8w0YPfnAOVQT0g/XHntV8Gabqhy2hNM3Fn8Itn9MqfnvBWejYy1xQm8RkdSpMPkJGHrRgd5d0Jl5 I3jzsyAx7YGz6MUo5mdegZf2wY7PwO4vr/X0jiNYnNDbRCR+oi6aGDmlseCN6FNo0ZsNL7sl/ALa c+ex4+8DyiwrsOdf4Mm/VErt6JJhjgBxQl8hIomjYezjMPYmiA02FrwpojCiT2A3wOyE8Et1hyly qa++Mo+FrbDvuzD3LaXyD3TAAEef4IS+SkTSz4ChP4XRt0F8xD9+r6+UMo/eOfr6Aw70wt6jjBW1 V9CNXlcFKlnY9z2YOw8Wf+Yy6dHECb1DiEgcUi+G9MkwfIquh65f+NBI9Cv17M3ErYCqgoVrYO95 MH+xUmp+hR/iCAlO6GuEiBwEIydD5mQYOgliI829vFfs9cKvPz+NBF7JQf5OyN2mj9JPO9GswBEe nNC7QM3bvwhiR0L8YEgcoo/YIRDfCDKw/Monc56qC5C7HfK3QeE2/Vj8jVts4lgKJ/SAqd0Eng4c DLF1UC1ANQuyCOUsDGShkEWXsmXdNJhjJTihOxwRIDLNIR2OKOOE7nBEACd0hyMCOKE7HBHACd3h iABO6A5HBHBCdzgigBO6wxEBnNAdjgjw/wFyc311QWLzaAAAAABJRU5ErkJggg== "
       id="image10"
       x="3.2189715"
       y="1.7105751"
       inkscape:transform-center-x="98.389831"
       inkscape:transform-center-y="216.20609" />
    <path
       style="fill:#000000"
       d="M 12.22353,25.417089 C 11.204136,25.151269 10.495823,24.75459 9.6805653,23.992943 8.4576172,22.850417 7.9137307,21.530156 8.0098084,19.937251 8.0721875,18.903045 8.3729455,18.062038 8.9707195,17.250263 9.6882375,16.275875 9.7429413,16.137314 9.7422654,15.295975 9.7410828,13.823836 9.2941146,12.167725 8.0991,9.2077021 L 7.3950644,7.4638229 6.8345179,7.4415046 C 6.0390509,7.4098331 5.4741114,7.1801113 4.9928585,6.692629 4.1476488,5.8364791 4.0721127,4.6267068 4.8069235,3.7147311 6.1838566,2.0058158 9.1449261,2.784572 9.3087065,4.8986922 9.3617079,5.5828477 9.2146773,6.0301074 8.7498584,6.5986795 8.5557519,6.8361129 8.3969375,7.064523 8.3969375,7.1062574 c 0,0.1787462 0.9988614,2.3865114 1.5706168,3.4715056 1.1879257,2.254273 2.4940897,3.781122 3.5239797,4.119382 0.245205,0.08053 0.818641,0.210545 1.274302,0.288911 1.20989,0.208079 2.133727,0.658155 3.015515,1.469105 0.783284,0.720359 1.092331,1.201945 1.59251,2.481601 0.482961,1.235608 0.962827,1.595185 2.494584,1.869265 0.479302,0.08576 0.972547,0.175513 1.096099,0.199445 0.169843,0.0329 0.278203,-0.03741 0.444216,-0.28821 0.120766,-0.182449 0.432197,-0.463223 0.69207,-0.623942 1.868536,-1.155608 4.322631,0.413579 3.865094,2.471401 -0.155094,0.697551 -0.631522,1.268465 -1.343258,1.609652 -1.142478,0.547674 -2.572097,0.189044 -3.234554,-0.811413 -0.159116,-0.2403 -0.324266,-0.630757 -0.367001,-0.867684 l -0.0777,-0.430774 -0.99766,-0.181625 c -1.68752,-0.307216 -2.185574,-0.138908 -3.154166,1.065893 -1.061772,1.320705 -1.827831,1.903517 -3.093715,2.353674 -0.867188,0.308377 -2.521995,0.362981 -3.47434,0.114645 z m 7.9785,-13.740761 c -1.617523,-0.459407 -2.438271,-2.1794667 -1.700007,-3.5627445 1.04542,-1.9587918 4.129117,-1.8312022 4.962095,0.2053092 0.218458,0.5340973 0.17809,1.5887165 -0.07833,2.0464983 -0.578003,1.031885 -2.042747,1.635004 -3.183755,1.310937 z"
       id="path3808"
       inkscape:connector-curvature="0" />
  </g>
</svg>
